{
    "Test":
    {
	"compiler_type": "g++",
	"output_type": "executable",
	"build_type": "debug",
	"executable_name": "test",
	"output_directory": "../build/",
	"libs": [
	    "-ldl",
	    "-lcurl"
	],
	"input_file": "test.cpp",
	"package-name": "test",
	"package-version": "1.0.0",
	"source-type": "git",
	"source-url": "https://gitlab.com/danyguag/test.git"
    }
}
